Assignement 4
…
We present again the Paperback series in the tsibble format.

# Load the data
paperback <- books[,1]

times <- seq(1, dim(books)[1], 1)    # vector for time
books_df <- data.frame(books[, 1:2]) 

books_tsibble <- books_df |>           # create tsibble object
  mutate(Time = times, .before=1) |> 
  as_tsibble(index = Time)

books_tsibble

## # A tsibble: 30 x 3 [1]
##     Time Paperback Hardcover
##    <dbl>     <int>     <int>
##  1     1       199       139
##  2     2       172       128
##  3     3       111       172
##  4     4       209       139
##  5     5       161       191
##  6     6       119       168
##  7     7       195       170
##  8     8       195       145
##  9     9       131       184
## 10    10       183       135
## # ... with 20 more rows
…
In this exercise we replace the normal simulation by bootstrap.

In our context, bootstrap is a synonym for re-sampling. The idea is
to draw at random the new error from the sample of estimated errors with
replacement.

set.seed(1234) # replicability
h.step <- 10 # 10-step ahead
R <- 100 
# bootstrap
sim <- model_AAdN %>% generate(h = h.step, times = 10, bootstrap = TRUE) # with replacement
sim # we keep times to 10 for graphic reasons

## # A tsibble: 100 x 4 [1]
## # Key:       .model, .rep [10]
##    .model  Time .rep   .sim
##    <chr>  <dbl> <chr> <dbl>
##  1 SES       31 1      225.
##  2 SES       32 1      269.
##  3 SES       33 1      197.
##  4 SES       34 1      195.
##  5 SES       35 1      199.
##  6 SES       36 1      174.
##  7 SES       37 1      185.
##  8 SES       38 1      165.
##  9 SES       39 1      199.
## 10 SES       40 1      156.
## # ... with 90 more rows
…
